[{

    "when": {
        "event": {
        "and": 
            { "channel": "HumanSpeech", "equal": "red bird" }
        
        } },

    "trigger": "started",
    "actions": [{"name": "say", "value": "red bird, red bird, what do you see?"}]
}]
  
